[
  {
    "name": "ticket",
    "category": "ticket",
    "price": {
      "6": 8400,
      "12": 4400,
      "21": 3800
    },
    "description": "Een ticket voor Fri3d Camp",
    "variants": [
      {
        "name": "bits",
        "description": "Prijscategorie",
        "options": [
          {
            "name": "0-3 jaar",
            "slug": "3bit",
            "price_modifier": {
              "6": -7000,
              "12": -4400,
              "21": -3800
            }
          },
          {
            "name": "3-6 jaar",
            "slug": "4bit",
            "price_modifier": {
              "6": -7000,
              "12": -3300,
              "21": -3800
            }
          },
          {
            "name": "6-12 jaar",
            "slug": "5bit",
            "price_modifier": {
              "6": -7000,
              "12": -2200,
              "21": -3000
            }
          },
          {
            "name": "12-24 jaar",
            "slug": "6bit",
            "price_modifier": {
              "6": -5800,
              "12": 0,
              "21": -1700
            }
          },
          {
            "name": "+24 jaar",
            "slug": "7bit",
            "price_modifier": {}
          },
          {
            "name": "Tourist",
            "slug": "8bit",
            "price_modifier": {
              "6": 0,
              "12": 0,
              "21": 3800
            }
          },
          {
            "name": "Business",
            "slug": "9bit",
            "price_modifier": {
              "6": 0,
              "12": 0,
              "21": 24200
            }
          }
        ]
      },
      {
        "name": "food",
        "description": "Voedingsvoorkeur",
        "options": [
          {
            "name": "omnivore",
            "slug": "omnivore",
            "price_modifier": {}
          },
          {
            "name": "vegetarian",
            "slug": "vegetarian",
            "price_modifier": {}
          }
        ]
      },
      {
        "name": "early",
        "description": "Helpt graag opbouwen de dagen voor het kamp (we contacteren je nog)",
        "options": [
          {
            "name": "Ja",
            "slug": "yes",
            "price_modifier": {}
          },
          {
            "name": "Nee",
            "slug": "no",
            "price_modifier": {}
          }
        ]
      },
      {
        "name": "late",
        "description": "Helpt graag afbreken de dagen na het kamp (we contacteren je nog)",
        "options": [
          {
            "name": "Ja",
            "slug": "yes",
            "price_modifier": {}
          },
          {
            "name": "Nee",
            "slug": "no",
            "price_modifier": {}
          }
        ]
      },
      {
        "name": "othertask",
        "description": "Kan moeilijk een (fysiek belastende) taak opnemen tijdens Fri3d Camp, maar wil graag op een andere manier bijdragen",
        "options": [
          {
            "name": "Ja",
            "slug": "yes",
            "price_modifier": {}
          },
          {
            "name": "Nee",
            "slug": "no",
            "price_modifier": {}
          }
        ]
      },
      {
        "name": "notask",
        "description": "Kan niet minstens één community-taak opnemen tijdens Fri3d Camp",
        "options": [
          {
            "name": "Ja",
            "slug": "yes",
            "price_modifier": {}
          },
          {
            "name": "Nee",
            "slug": "no",
            "price_modifier": {}
          }
        ]
      }
    ],
    "fields": [
      {
        "name": "name",
        "description": "Naam van de deelnemer",
        "required": true
      },
      {
        "name": "email",
        "description": "E-mailadres dat ook updates moet ontvangen",
        "required": false
      },
      {
        "name": "notes",
        "description": "Opmerkingen",
        "required": false
      },
      {
        "name": "age",
        "description": "Leeftijd tijdens Fri3d Camp",
        "required": true
      }
    ]
  },
  {
    "name": "token",
    "price": {
      "21": 1800
    },
    "description": "Drankkaart (10 consumpties per kaart)",
    "variants": [],
    "fields": []
  },
  {
    "name": "tshirt_adult",
    "category": "tshirt",
    "description": "T-shirt (adult)",
    "fields": [],
    "price": {
      "21": 2200
    },
    "info": {
      "desc": "Dit topkwaliteit T-shirt is van het Belgische Stanley & Stella, een merk met veel aandacht voor duurzaamheid en een transparant productieproces. Je Fri3d Camp T-shirt is geen promo-wear, maar gemaakt om lang van te genieten en écht te gebruiken.<br/><br/>Shell: Enkelvoudige jersey, 100% Gesponnen en gekamd biologisch katoen, Gewassen stof, 180 g/m²",
      "sizing": {
        "img": "size_tshirt_adult.png",
        "table": {
          "axis": [
            {
              "label": "Afmeting",
              "vals": [
                "A - Halve borstomtrek",
                "B - Ruglengte",
                "C - Mouwlengte"
              ]
            },
            {
              "label": "Maat",
              "vals": [
                "xxs",
                "xs",
                "s",
                "m",
                "l",
                "xl",
                "xxl",
                "3xl",
                "4xl",
                "5xl"
              ]
            }
          ],
          "vals": [
            [
              43.5,
              46,
              49,
              52,
              55,
              58,
              61,
              64,
              69,
              74
            ],
            [
              64,
              66,
              69,
              72,
              74,
              76,
              78,
              80,
              82,
              84
            ],
            [
              19,
              19.5,
              20.5,
              21.5,
              22.5,
              22.5,
              23.5,
              24.5,
              24.5,
              25.5
            ]
          ]
        }
      }
    },
    "variants": [
      {
        "description": "size",
        "name": "size",
        "options": [
          {
            "name": "XXS",
            "price_modifier": {},
            "slug": "xxs"
          },
          {
            "name": "XS",
            "price_modifier": {},
            "slug": "xs"
          },
          {
            "name": "S",
            "price_modifier": {},
            "slug": "s"
          },
          {
            "name": "M",
            "price_modifier": {},
            "slug": "m"
          },
          {
            "name": "L",
            "price_modifier": {},
            "slug": "l"
          },
          {
            "name": "XL",
            "price_modifier": {},
            "slug": "xl"
          },
          {
            "name": "XXL",
            "price_modifier": {},
            "slug": "xxl"
          },
          {
            "name": "3XL",
            "price_modifier": {},
            "slug": "3xl"
          },
          {
            "name": "4XL",
            "price_modifier": {},
            "slug": "4xl"
          },
          {
            "name": "5XL",
            "price_modifier": {},
            "slug": "5xl"
          }
        ]
      }
    ]
  },
  {
    "name": "tshirt_slub",
    "category": "tshirt",
    "price": {
      "21": 2200
    },
    "description": "Scoop neck T-shirt",
    "info": {
      "desc": "Dit topkwaliteit T-shirt is van het Belgische Stanley & Stella, een merk met veel aandacht voor duurzaamheid en een transparant productieproces. Je Fri3d Camp T-shirt is geen promo-wear, maar gemaakt om lang van te genieten en écht te gebruiken.<br/><br/>130 g/m², 100% Gesponnen en gekamd biologisch katoen, gevlamde enkelvoudige jersey",
      "sizing": {
        "img": "size_tshirt_slub.png",
        "table": {
          "axis": [
            {
              "label": "Afmeting",
              "vals": [
                "A - Halve borstomtrek",
                "B - Ruglengte",
                "C - Mouwlengte"
              ]
            },
            {
              "label": "Maat",
              "vals": [
                "xs",
                "s",
                "m",
                "l",
                "xl"
              ]
            }
          ],
          "vals": [
            [
              45.5,
              48,
              51,
              54,
              57
            ],
            [
              62,
              64,
              66,
              68,
              69
            ],
            [
              19.5,
              20,
              21,
              21.5,
              22
            ]
          ]
        }
      }
    },
    "variants": [
      {
        "name": "size",
        "description": "size",
        "options": [
          {
            "name": "XS",
            "slug": "xs",
            "price_modifier": {}
          },
          {
            "name": "S",
            "slug": "s",
            "price_modifier": {}
          },
          {
            "name": "M",
            "slug": "m",
            "price_modifier": {}
          },
          {
            "name": "L",
            "slug": "l",
            "price_modifier": {}
          },
          {
            "name": "XL",
            "slug": "xl",
            "price_modifier": {}
          }
        ]
      }
    ],
    "fields": []
  },
  {
    "name": "hoodie_adult",
    "category": "hoodie",
    "description": "Hoodie (adult)",
    "fields": [],
    "price": {
      "21": 4700
    },
    "info": {
      "desc": "Deze topkwaliteit hoodie is van het Belgische Stanley & Stella, een merk met veel aandacht voor duurzaamheid en een transparant productieproces. Je Fri3d Camp hoodie is geen promo-wear, maar gemaakt om lang van te genieten en &eacute;cht te gebruiken.<br/><br/>Shell: Geborstelde molton, 85% Gesponnen en gekamd biologisch katoen, 15% Gerecycled polyester, Gewassen stof, Zachte stof, 350 g/m²",
      "sizing": {
        "img": "size_hoodie_adult.png",
        "table": {
          "axis": [
            {
              "label": "Afmeting",
              "vals": [
                "A - Halve borstomtrek",
                "B - Ruglengte",
                "C - Mouwlengte"
              ]
            },
            {
              "label": "Maat",
              "vals": [
                "xxs",
                "xs",
                "s",
                "m",
                "l",
                "xl",
                "xxl",
                "3xl",
                "4xl",
                "5xl"
              ]
            }
          ],
          "vals": [
            [
              46.5,
              49,
              51.5,
              54,
              57,
              60,
              63,
              66,
              71,
              76
            ],
            [
              63,
              65,
              68,
              72,
              74,
              76,
              78,
              80,
              82,
              83
            ],
            [
              60.5,
              61.5,
              64,
              65.5,
              67,
              68.5,
              70,
              70,
              70,
              70
            ]
          ]
        }
      }
    },
    "variants": [
      {
        "description": "size",
        "name": "size",
        "options": [
          {
            "name": "XXS",
            "price_modifier": {},
            "slug": "xxs"
          },
          {
            "name": "XS",
            "price_modifier": {},
            "slug": "xs"
          },
          {
            "name": "S",
            "price_modifier": {},
            "slug": "s"
          },
          {
            "name": "M",
            "price_modifier": {},
            "slug": "m"
          },
          {
            "name": "L",
            "price_modifier": {},
            "slug": "l"
          },
          {
            "name": "XL",
            "price_modifier": {},
            "slug": "xl"
          },
          {
            "name": "XXL",
            "price_modifier": {},
            "slug": "xxl"
          },
          {
            "name": "3XL",
            "price_modifier": {},
            "slug": "3xl"
          },
          {
            "name": "4XL",
            "price_modifier": {},
            "slug": "4xl"
          },
          {
            "name": "5XL",
            "price_modifier": {},
            "slug": "5xl"
          }
        ]
      }
    ]
  },
  {
    "name": "tshirt_kids",
    "category": "tshirt",
    "price": {
      "21": 2200
    },
    "description": "Kinder T-shirt",
    "info": {
      "desc": "Dit topkwaliteit T-shirt is van het Belgische Stanley & Stella, een merk met veel aandacht voor duurzaamheid en een transparant productieproces. Je Fri3d Camp T-shirt is geen promo-wear, maar gemaakt om lang van te genieten en écht te gebruiken.<br/><br/>Shell: Enkelvoudige jersey, 100% Gesponnen en gekamd biologisch katoen, Gewassen stof, 155 g/m²",
      "sizing": {
        "img": "size_tshirt_kids.png",
        "table": {
          "axis": [
            {
              "label": "Afmeting",
              "vals": [
                "A - Halve borstomtrek",
                "B - Ruglengte",
                "C - Mouwlengte"
              ]
            },
            {
              "label": "Maat",
              "vals": [
                "3-4j",
                "5-6j",
                "7-8j",
                "9-11j",
                "12-14j"
              ]
            }
          ],
          "vals": [
            [
              33,
              35,
              37,
              41,
              44
            ],
            [
              42,
              46,
              51.5,
              57.5,
              62.5
            ],
            [
              11.5,
              12.5,
              14.5,
              16.5,
              18.5
            ]
          ]
        }
      }
    },
    "variants": [
      {
        "name": "size",
        "description": "size",
        "options": [
          {
            "name": "3-4j",
            "slug": "3_4",
            "price_modifier": {}
          },
          {
            "name": "5-6j",
            "slug": "5_6",
            "price_modifier": {}
          },
          {
            "name": "7-8j",
            "slug": "7_8",
            "price_modifier": {}
          },
          {
            "name": "9-11j",
            "slug": "9_11",
            "price_modifier": {}
          },
          {
            "name": "12-14j",
            "slug": "12_14",
            "price_modifier": {}
          }
        ]
      }
    ],
    "fields": []
  },
  {
    "name": "hoodie_kids",
    "category": "hoodie",
    "price": {
      "21": 4200
    },
    "description": "Kinder Hoodie",
    "info": {
      "desc": "Deze topkwaliteit hoodie is van het Belgische Stanley & Stella, een merk met veel aandacht voor duurzaamheid en een transparant productieproces. Je Fri3d Camp hoodie is geen promo-wear, maar gemaakt om lang van te genieten en &eacute;cht te gebruiken.<br/><br/>Shell: Geborstelde molton, 85% Gesponnen en gekamd biologisch katoen, 15% Gerecycled polyester, Gewassen stof, Zachte stof, 350 g/m²",
      "sizing": {
        "img": "size_hoodie_kids.png",
        "table": {
          "axis": [
            {
              "label": "Afmeting",
              "vals": [
                "A - Halve borstomtrek",
                "B - Ruglengte",
                "C - Mouwlengte"
              ]
            },
            {
              "label": "Maat",
              "vals": [
                "3-4j",
                "5-6j",
                "7-8j",
                "9-11j",
                "12-14j"
              ]
            }
          ],
          "vals": [
            [
              35,
              37,
              39,
              43,
              46
            ],
            [
              42,
              46,
              51.5,
              57.5,
              62.5
            ],
            [
              36.5,
              42,
              48,
              54,
              59
            ]
          ]
        }
      }
    },
    "variants": [
      {
        "name": "size",
        "description": "size",
        "options": [
          {
            "name": "3-4j",
            "slug": "3_4",
            "price_modifier": {}
          },
          {
            "name": "5-6j",
            "slug": "5_6",
            "price_modifier": {}
          },
          {
            "name": "7-8j",
            "slug": "7_8",
            "price_modifier": {}
          },
          {
            "name": "9-11j",
            "slug": "9_11",
            "price_modifier": {}
          },
          {
            "name": "12-14j",
            "slug": "12_14",
            "price_modifier": {}
          }
        ]
      }
    ],
    "fields": []
  },
  {
    "name": "camper",
    "price": {
      "21": 2800
    },
    "description": "Plaats voor camper of caravan",
    "fields": [],
    "variants": []
  },
  {
    "name": "bed",
    "price": {
      "21": 3000
    },
    "description": "Slaapplaats in gedeelde kamer",
    "fields": [],
    "variants": []
  },
  {
    "name": "room",
    "price": {
      "21": 16000
    },
    "description": "Volledige slaapkamer (6 à 8 slaapplaatsen)",
    "fields": [],
    "variants": []
  },
  {
    "name": "socks",
    "price": {
      "21": 1000
    },
    "description": "Tijdloze Fri3d Camp sokken",
    "info": {
      "desc": "Fri3d camp logo geborduurd op 52% katoen / 48% elastaan sokken van het merk Kariban. Halflang met brede boord in rib voor optimaal comfort."
    },
    "variants": [
      {
        "name": "size",
        "description": "Maat",
        "options": [
          {
            "name": "39/42 Zwart",
            "slug": "39_42_black",
            "price_modifier": {}
          },
          {
            "name": "43/46 Zwart",
            "slug": "43_46_black",
            "price_modifier": {}
          },
          {
            "name": "39/42 Limoen",
            "slug": "39_42_lime",
            "price_modifier": {}
          },
          {
            "name": "43/46 Limoen",
            "slug": "43_46_lime",
            "price_modifier": {}
          },
          {
            "name": "39/42 Paars",
            "slug": "39_42_purple",
            "price_modifier": {}
          },
          {
            "name": "43/46 Paars",
            "slug": "43_46_purple",
            "price_modifier": {}
          }
        ]
      }
    ],
    "fields": []
  },
  {
    "name": "drinkfles",
    "price": {
      "21": 1000
    },
    "description": "Stevige drinkfles van 500ml",
    "info": {
      "desc": "De fles heeft een siliconen dop met een gat erin, waardoor deze met behulp van een karabijnhaak ook bevestigd kan worden aan een sporttas of rugzak. De fles is gemaakt van gerecycleerd PET."
    },
    "fields": [],
    "variants": []
  },
  {
    "name": "fluo_kids",
    "price": {
      "21": 1000
    },
    "description": "Fluo hesje voor kinderen",
    "fields": [],
    "variants": [
      {
        "name": "size",
        "description": "Maat",
        "options": [
          {
            "name": "4-6j",
            "slug": "4_6",
            "price_modifier": {}
          },
          {
            "name": "7-9j",
            "slug": "7_9",
            "price_modifier": {}
          },
          {
            "name": "10-12j",
            "slug": "10_12",
            "price_modifier": {}
          }
        ]
      }
    ]
  },
  {
    "name": "fluo_adult",
    "price": {
      "21": 1000
    },
    "description": "Fluo hesje voor volwassenen",
    "fields": [],
    "variants": [
      {
        "name": "size",
        "description": "Maat",
        "options": [
          {
            "name": "S",
            "slug": "s",
            "price_modifier": {}
          },
          {
            "name": "M",
            "slug": "m",
            "price_modifier": {}
          },
          {
            "name": "L",
            "slug": "l",
            "price_modifier": {}
          },
          {
            "name": "XL",
            "slug": "xl",
            "price_modifier": {}
          },
          {
            "name": "XXL",
            "slug": "xxl",
            "price_modifier": {}
          },
          {
            "name": "3XL",
            "slug": "3xl",
            "price_modifier": {}
          }
        ]
      }
    ]
  },
  {
    "name": "donation",
    "price": {
      "0": 1000
    },
    "description": "Donatie",
    "fields": [],
    "variants": []
  },
  {
    "name": "communicator",
    "price": {
      "21": 2000
    },
    "description": "Badge add-on: Communicator",
    "variants": [],
    "fields": [],
    "info": {
		"desc" : "Full QWERTY Keyboard (ook via USB te gebruiken wie wat handig is), 1W luidspreker met eigen DAC en microfoon. Met wat magische software kan je de badge hiermee omtoveren in een walkie talkie of chat terminal 🤷"
	}
  },
  {
    "name": "blaster",
    "price": {
      "21": 2000
    },
    "description": "Badge add-on: Blaster",
    "variants": [],
    "fields": [],
	 "info": {
		"desc" : "Gelijkaardig aan de Blaster van Fri3d Camp 2022. Deze keer met een RISC-V microcontroller ipv ATMEGA AVR Microcontroller.<br/> Altijd al jouw eigen lasertag willen maken? Het kan nu op Fri3d camp! Als uitbreiding op de badge, maar ook als standalone, heeft het badge team een blaster ontwikkeld als soldeerkit. Deze volledige Arduino compatibele kit is opgebouwd uit makkelijk zelf te solderen componenten. Voor de durvers zijn er uitbreidingen met RGB LEDs en een USB interface voorzien in de kit waar toch enige vorm van geduld en een vast hand vereist zijn."
	}
  }
]
