<?xml version="1.0" encoding="UTF-8"?>
<svg width="1200pt" height="1200pt" version="1.1" viewBox="0 0 1200 1200" xmlns="http://www.w3.org/2000/svg">
 <g>
  <path d="m1024.8 166.8h-99.602v-36c0-30-25.199-55.199-55.199-55.199h-39.602c-30 0-55.199 25.199-55.199 55.199v36h-351.6v-36c0-30-25.199-55.199-55.199-55.199h-39.602c-30 0-55.199 25.199-55.199 55.199v36h-98.398c-80.398 0-145.2 64.801-145.2 145.2v668.4c0 80.398 64.801 145.2 145.2 145.2h729.6c25.199 0 49.199-9.6016 67.199-27.602l169.2-169.2c18-18 27.602-42 27.602-67.199v-549.6c1.1953-80.395-63.605-145.2-144-145.2zm-849.6 90h849.6c30 0 55.199 25.199 55.199 55.199v75.602h-960v-75.602c0-31.199 25.199-55.199 55.199-55.199zm-55.199 723.6v-504h960v313.2l-150 0.003906c-52.801 0-96 43.199-96 96v150h-660c-28.801-1.2031-54-25.203-54-55.203zm804 36v-130.8c0-3.6016 2.3984-6 6-6h132z"/>
  <path d="m345.6 638.4c0 35.125-28.477 63.602-63.602 63.602s-63.602-28.477-63.602-63.602 28.477-63.598 63.602-63.598 63.602 28.473 63.602 63.598"/>
  <path d="m556.8 638.4c0 35.125-28.477 63.602-63.602 63.602s-63.598-28.477-63.598-63.602 28.473-63.598 63.598-63.598 63.602 28.473 63.602 63.598"/>
  <path d="m768 638.4c0 35.125-28.477 63.602-63.602 63.602s-63.598-28.477-63.598-63.602 28.473-63.598 63.598-63.598 63.602 28.473 63.602 63.598"/>
  <path d="m979.2 638.4c0 35.125-28.473 63.602-63.598 63.602s-63.602-28.477-63.602-63.602 28.477-63.598 63.602-63.598 63.598 28.473 63.598 63.598"/>
  <path d="m345.6 865.2c0 35.125-28.477 63.602-63.602 63.602s-63.602-28.477-63.602-63.602 28.477-63.598 63.602-63.598 63.602 28.473 63.602 63.598"/>
  <path d="m556.8 865.2c0 35.125-28.477 63.602-63.602 63.602s-63.598-28.477-63.598-63.602 28.473-63.598 63.598-63.598 63.602 28.473 63.602 63.598"/>
  <path d="m768 865.2c0 35.125-28.477 63.602-63.602 63.602s-63.598-28.477-63.598-63.602 28.473-63.598 63.598-63.598 63.602 28.473 63.602 63.598"/>
 </g>
</svg>
