<?xml version="1.0" encoding="UTF-8"?>
<svg width="1200pt" height="1200pt" version="1.1" viewBox="0 0 1200 1200" xmlns="http://www.w3.org/2000/svg">
 <path d="m1073.7 946.73h-947.41c-21.957-0.019531-43.008-8.75-58.535-24.27-15.523-15.523-24.258-36.574-24.285-58.527v-88c0.21094-18.602 6.5898-36.605 18.141-51.188 11.547-14.582 27.613-24.918 45.672-29.379 27.77-8.0078 50.668-27.723 62.711-53.992 12.047-26.273 12.043-56.488-0.007813-82.754-12.051-26.27-34.953-45.977-62.723-53.98-18.039-4.4453-34.094-14.754-45.637-29.309-11.547-14.555-17.934-32.531-18.156-51.109v-78.406c-2.0391-23.43 5.7031-46.664 21.387-64.191 15.684-17.523 37.918-27.785 61.434-28.348h947.41c21.957 0.019531 43.008 8.7461 58.539 24.27 15.527 15.523 24.266 36.57 24.297 58.527v88c-0.20703 18.602-6.5859 36.602-18.133 51.184-11.547 14.582-27.605 24.918-45.66 29.383-27.766 8.0117-50.66 27.723-62.707 53.992-12.043 26.266-12.043 56.477 0 82.742 12.047 26.27 34.945 45.98 62.707 53.988 18.055 4.4688 34.117 14.805 45.66 29.387 11.547 14.582 17.926 32.582 18.133 51.18v88c-0.03125 21.957-8.7695 43.008-24.297 58.531-15.531 15.523-36.582 24.25-58.539 24.27zm-608.42-75h608.42c4.3125 0 7.8164-3.4844 7.8359-7.7969v-88c0-4.6484-5.457-7.3594-8.7148-8.2773-36.695-10.125-69.055-32.008-92.113-62.289-23.059-30.285-35.547-67.301-35.547-105.36s12.488-75.078 35.547-105.36c23.059-30.281 55.418-52.164 92.113-62.289 3.2578-0.91406 8.7148-3.625 8.7148-8.2773v-88c-0.019531-4.3125-3.5234-7.7969-7.8359-7.7969h-608.43zm-338.98-543.45c-7.5977 0-7.8203 15.746-7.8203 17.543v78.402c0 4.5039 5.4766 7.2148 8.6992 8.1289 36.441 10.398 68.504 32.387 91.332 62.637s35.18 67.113 35.184 105.01c0 37.895-12.348 74.762-35.172 105.01-22.828 30.254-54.887 52.242-91.332 62.645-3.2383 0.91406-8.7109 3.625-8.7109 8.2773v88c0.019531 4.3047 3.5117 7.7891 7.8203 7.7969h263.98l-0.003907-543.45z"/>
</svg>
