<?xml version="1.0" encoding="UTF-8"?>
<svg width="1200pt" height="1200pt" version="1.1" viewBox="0 0 1200 1200" xmlns="http://www.w3.org/2000/svg">
 <g>
  <path d="m781.2 405.6-237.6 268.8-127.2-127.2c-21.602-21.602-57.602-21.602-80.398 0-21.602 21.602-21.602 57.602 0 80.398l170.4 170.4c10.801 10.801 25.199 16.801 39.602 16.801h2.3984c15.602 0 30-7.1992 40.801-19.199l277.2-315.6c20.398-24 18-60-4.8008-80.398-23.996-20.402-59.996-18-80.398 6z"/>
  <path d="m844.8 30h-489.6c-180 0-325.2 145.2-325.2 325.2v489.6c0 178.8 145.2 325.2 325.2 325.2h489.6c178.8 0 325.2-145.2 325.2-325.2v-489.6c0-180-145.2-325.2-325.2-325.2zm211.2 814.8c0 116.4-94.801 211.2-211.2 211.2h-489.6c-116.4 0-211.2-94.801-211.2-211.2v-489.6c0-116.4 94.801-211.2 211.2-211.2h489.6c116.4 0 211.2 94.801 211.2 211.2z"/>
 </g>
</svg>
