<?xml version="1.0" encoding="UTF-8"?>
<svg width="1200pt" height="1200pt" version="1.1" viewBox="0 0 1200 1200" xmlns="http://www.w3.org/2000/svg">
 <path d="m1023.4 231.25c-0.019531-21.508-10.102-41.766-27.25-54.75l-93.125-70.75c-11.988-8.9961-26.574-13.859-41.562-13.859s-29.574 4.8633-41.562 13.859l-85.375 64.75c-2.2461 1.7305-5.3789 1.7305-7.625 0l-85.375-64.75c-11.961-9.0039-26.527-13.875-41.5-13.875s-29.539 4.8711-41.5 13.875l-85.375 64.75c-2.2461 1.7305-5.3789 1.7305-7.625 0l-85.375-64.75c-11.988-8.9961-26.574-13.859-41.562-13.859s-29.574 4.8633-41.562 13.859l-93.125 70.75c-17.148 12.984-27.23 33.242-27.25 54.75v779.75c-0.13672 17.297 6.2539 34.012 17.895 46.809s27.676 20.734 44.91 22.227c17.234 1.4961 34.398-3.5586 48.07-14.16l47.875-36.375c2.2461-1.7305 5.3789-1.7305 7.625 0l85.375 64.75c11.973 9.0352 26.562 13.922 41.562 13.922s29.59-4.8867 41.562-13.922l85.375-64.75c2.1914-1.7539 5.3086-1.7539 7.5 0l85.375 64.75c11.988 8.9961 26.574 13.859 41.562 13.859s29.574-4.8633 41.562-13.859l85.375-64.75c2.2461-1.7305 5.3789-1.7305 7.625 0l47.875 36.375c13.676 10.355 30.727 15.223 47.809 13.648 17.078-1.5742 32.953-9.4766 44.508-22.152 11.555-12.68 17.949-29.219 17.934-46.371zm-62.5 779.75c0.14062 2.4258-1.2617 4.6797-3.5 5.625-1.9492 1.3789-4.5508 1.3789-6.5 0l-47.875-36.375c-11.988-8.9961-26.574-13.859-41.562-13.859s-29.574 4.8633-41.562 13.859l-85.375 64.875c-2.2852 1.6094-5.3398 1.6094-7.625 0l-85.375-64.875c-11.961-9.0039-26.527-13.875-41.5-13.875s-29.539 4.8711-41.5 13.875l-85.375 64.875c-2.2852 1.6094-5.3398 1.6094-7.625 0l-85.375-64.875c-11.988-8.9961-26.574-13.859-41.562-13.859s-29.574 4.8633-41.562 13.859l-47.875 36.375c-1.9688 1.3086-4.5312 1.3086-6.5 0-2.2383-0.94531-3.6406-3.1992-3.5-5.625v-779.75c-0.042969-1.9766 0.89453-3.8477 2.5-5l93.125-70.75c2.2852-1.6094 5.3398-1.6094 7.625 0l85.375 64.75c11.965 9.0547 26.559 13.953 41.562 13.953s29.598-4.8984 41.562-13.953l85.375-64.75c2.2344-1.625 5.2656-1.625 7.5 0l85.375 64.75c11.965 9.0547 26.559 13.953 41.562 13.953s29.598-4.8984 41.562-13.953l85.375-64.75c2.2852-1.6094 5.3398-1.6094 7.625 0l93.125 70.75c1.6055 1.1523 2.543 3.0234 2.5 5zm-406.12-636.88c0.035156 8.2969-3.25 16.266-9.1172 22.133-5.8672 5.8672-13.836 9.1523-22.133 9.1172h-163.12c-11.164 0-21.48-5.957-27.062-15.625s-5.582-21.582 0-31.25 15.898-15.625 27.062-15.625h163.12c8.2969-0.035156 16.266 3.25 22.133 9.1172 5.8672 5.8672 9.1523 13.836 9.1172 22.133zm0 150c0.035156 8.2969-3.25 16.266-9.1172 22.133-5.8672 5.8672-13.836 9.1523-22.133 9.1172h-163.12c-11.164 0-21.48-5.957-27.062-15.625s-5.582-21.582 0-31.25 15.898-15.625 27.062-15.625h163.12c8.4531-0.039062 16.559 3.3633 22.453 9.4219 5.8906 6.0586 9.0703 14.254 8.7969 22.703zm0 150c0.035156 8.2969-3.25 16.266-9.1172 22.133-5.8672 5.8672-13.836 9.1523-22.133 9.1172h-163.12c-11.164 0-21.48-5.957-27.062-15.625s-5.582-21.582 0-31.25 15.898-15.625 27.062-15.625h163.12c8.4531-0.039062 16.559 3.3633 22.453 9.4219 5.8906 6.0586 9.0703 14.254 8.7969 22.703zm0 150c0.035156 8.2969-3.25 16.266-9.1172 22.133-5.8672 5.8672-13.836 9.1523-22.133 9.1172h-163.12c-11.164 0-21.48-5.957-27.062-15.625s-5.582-21.582 0-31.25 15.898-15.625 27.062-15.625h163.12c8.6133-0.050781 16.859 3.4688 22.781 9.7227s8.9883 14.68 8.4688 23.277zm316.12-450c0 8.2891-3.293 16.238-9.1523 22.098s-13.809 9.1523-22.098 9.1523h-163.12c-11.164 0-21.48-5.957-27.062-15.625s-5.582-21.582 0-31.25 15.898-15.625 27.062-15.625h163.12c8.2891 0 16.238 3.293 22.098 9.1523s9.1523 13.809 9.1523 22.098zm0 150c0 8.2891-3.293 16.238-9.1523 22.098s-13.809 9.1523-22.098 9.1523h-163.12c-11.164 0-21.48-5.957-27.062-15.625s-5.582-21.582 0-31.25 15.898-15.625 27.062-15.625h163.12c8.4414-0.003906 16.527 3.4102 22.414 9.4609 5.8828 6.0508 9.0742 14.227 8.8359 22.664zm0 150c0 8.2891-3.293 16.238-9.1523 22.098s-13.809 9.1523-22.098 9.1523h-163.12c-11.164 0-21.48-5.957-27.062-15.625s-5.582-21.582 0-31.25 15.898-15.625 27.062-15.625h163.12c8.4414-0.003906 16.527 3.4102 22.414 9.4609 5.8828 6.0508 9.0742 14.227 8.8359 22.664zm0 150c0 8.2891-3.293 16.238-9.1523 22.098s-13.809 9.1523-22.098 9.1523h-163.12c-11.164 0-21.48-5.957-27.062-15.625s-5.582-21.582 0-31.25 15.898-15.625 27.062-15.625h163.12c8.6016-0.011719 16.824 3.5195 22.738 9.7617 5.9141 6.2461 8.9922 14.652 8.5117 23.238z"/>
</svg>
