<?xml version="1.0" encoding="UTF-8"?>
<svg width="1200pt" height="1200pt" version="1.1" viewBox="0 0 1200 1200" xmlns="http://www.w3.org/2000/svg">
 <path d="m907.5 556.17-198.75-78.281c35.859-47.812 66.797-100.55 66.797-141.33 0-97.031-78.75-175.78-175.78-175.78s-175.78 78.75-175.78 175.78c0 40.781 30.938 93.516 66.797 141.33l-198.75 78.281-131.48 483.28h87.891l131.95-263.67v263.67h439.45v-263.67l131.72 263.67h87.891zm-307.5-307.73c48.516 0 87.891 39.375 87.891 87.891-1.1719 22.734-38.906 79.688-87.891 136.41-48.984-56.719-86.719-113.44-87.891-136.41 0-48.516 39.375-87.891 87.891-87.891z"/>
</svg>
