<?xml version="1.0" encoding="UTF-8"?>
<svg width="1200pt" height="1200pt" version="1.1" viewBox="0 0 1200 1200" xmlns="http://www.w3.org/2000/svg">
 <path d="m1087.5 206.25h-975c-63.75 0-112.5 48.75-112.5 112.5v562.5c0 63.75 48.75 112.5 112.5 112.5h975c63.75 0 112.5-48.75 112.5-112.5v-562.5c0-63.75-48.75-112.5-112.5-112.5zm-937.5 75h900c11.25 0 22.5 3.75 30 7.5l-450 401.25c-7.5 7.5-18.75 7.5-30 7.5s-22.5-3.75-30-11.25l-438.75-401.25c7.5-3.75 11.25-3.75 18.75-3.75zm-71.25 585c-3.75-7.5-3.75-15-3.75-22.5v-487.5c0-7.5 0-15 3.75-22.5l296.25 270zm971.25 52.5h-900-15l296.25-262.5 93.75 86.25c45 33.75 108.75 33.75 153.75 0l97.5-86.25 292.5 262.5h-18.75zm75-562.5v487.5c0 7.5 0 15-3.75 22.5l-288.75-258.75 292.5-258.75v7.5z"/>
</svg>
