<?xml version="1.0" encoding="UTF-8"?>
<svg width="1200pt" height="1200pt" version="1.1" viewBox="0 0 1200 1200" xmlns="http://www.w3.org/2000/svg">
 <path d="m600 600c69.621 0 136.39-27.656 185.62-76.883 49.227-49.23 76.883-116 76.883-185.62s-27.656-136.39-76.883-185.62c-49.23-49.227-116-76.883-185.62-76.883s-136.39 27.656-185.62 76.883c-49.227 49.23-76.883 116-76.883 185.62s27.656 136.39 76.883 185.62c49.23 49.227 116 76.883 185.62 76.883zm0-450c49.727 0 97.418 19.754 132.58 54.918 35.164 35.164 54.918 82.855 54.918 132.58s-19.754 97.418-54.918 132.58c-35.164 35.164-82.855 54.918-132.58 54.918s-97.418-19.754-132.58-54.918c-35.164-35.164-54.918-82.855-54.918-132.58s19.754-97.418 54.918-132.58c35.164-35.164 82.855-54.918 132.58-54.918zm447 844.12c-48.375-187.88-232.12-319.12-447-319.12s-398.62 131.25-447 319.12c-7.5117 30.34-0.59375 62.449 18.75 87 22.074 27.574 55.43 43.699 90.75 43.875h675c35.848 0.28125 69.844-15.891 92.25-43.875 18.82-24.805 25.184-56.891 17.25-87zm-78 40.875c-7.7656 9.4141-19.297 14.906-31.5 15h-675c-12.727 0.35938-24.902-5.1758-33-15-5.0977-6.3086-6.7773-14.715-4.5-22.5 39.375-152.25 196.5-262.5 375-262.5s334.88 112.5 375 262.5c1.875 8.0312-0.375 16.469-6 22.5z" style="fill:white;"/>
</svg>
